Capítulo 5 Moving Beyond Linearity | Análisis Multivariado 2
…
5.1 Predición

age.grid <- seq(
    from = min(Wage$age), 
    to = max(Wage$age)
)

predict(
    model,
    new_data = list(
        age = age.grid
    )
)
#> # A tibble: 63 × 1
#>    .pred
#>    <dbl>
#>  1  60.5
#>  2  62.7
#>  3  65.8
#>  4  69.6
#>  5  73.8
#>  6  78.3
#>  7  82.8
#>  8  87.2
#>  9  91.2
#> 10  94.8
#> # … with 53 more rows
…
